A globally-synthesized and flagged bee occurrence dataset and cleaning workflow
…
##  — Selected 29 columns. These include:
## database_id, id, catalogNumber, occurrenceID, dataSource, .scientificName_empty, .coordinates_empty, .coordinates_outOfRange, .basisOfRecords_notStandard, .coordinates_country_inconsistent, .occurrenceAbsent, .unLicensed, .GBIFflags, .summary, .invalidName, .rou, .val, .equ, .zer, .cap, .cen, .gbf, .inst, .sequential, .lonFlag, .latFlag, .gridSummary, .uncertaintyThreshold, and .countryOutlier

## # A tibble: 153,136 × 29
##    database_id id    catalogNumber occurrenceID dataSource .scientificName_empty
##    <chr>       <chr> <chr>         <chr>        <chr>      <lgl>                
##  1 Dorey_data… fd65… <NA>          <NA>         ALA_Apifo… TRUE                 
##  2 Dorey_data… b85a… <NA>          <NA>         ALA_Apifo… TRUE                 
##  3 Dorey_data… d95b… HYM36182      urn:lsid:oz… ALA_Apifo… TRUE                 
##  4 Dorey_data… 85bc… <NA>          <NA>         ALA_Apifo… TRUE                 
##  5 Dorey_data… b905… HYM36180      urn:lsid:oz… ALA_Apifo… TRUE                 
##  6 Dorey_data… f6fd… 132550620     https://www… ALA_Apifo… TRUE                 
##  7 Dorey_data… bd38… HYM42541      urn:lsid:oz… ALA_Apifo… TRUE                 
##  8 Dorey_data… f046… 31469707      https://www… ALA_Apifo… TRUE                 
##  9 Dorey_data… f3b7… 4244291       /sightings/… ALA_Apifo… TRUE                 
## 10 Dorey_data… 907a… <NA>          <NA>         ALA_Apifo… TRUE                 
## # ℹ 153,126 more rows
## # ℹ 23 more variables: .coordinates_empty <lgl>, .coordinates_outOfRange <lgl>,
## #   .basisOfRecords_notStandard <lgl>, .coordinates_country_inconsistent <lgl>,
## #   .occurrenceAbsent <lgl>, .unLicensed <lgl>, .GBIFflags <lgl>,
## #   .summary <lgl>, .invalidName <lgl>, .rou <lgl>, .val <lgl>, .equ <lgl>,
## #   .zer <lgl>, .cap <lgl>, .cen <lgl>, .gbf <lgl>, .inst <lgl>,
## #   .sequential <lgl>, .lonFlag <lgl>, .latFlag <lgl>, .gridSummary <lgl>, …
…
##  — Selected 31 columns. These include:
## database_id, id, catalogNumber, occurrenceID, dataSource, .scientificName_empty, .coordinates_empty, .coordinates_outOfRange, .basisOfRecords_notStandard, .coordinates_country_inconsistent, .occurrenceAbsent, .unLicensed, .GBIFflags, .summary, .invalidName, .rou, .val, .equ, .zer, .cap, .cen, .gbf, .inst, .sequential, .lonFlag, .latFlag, .gridSummary, .uncertaintyThreshold, .countryOutlier, .eventDate_empty, and .year_outOfRange

## # A tibble: 153,136 × 31
##    database_id id    catalogNumber occurrenceID dataSource .scientificName_empty
##    <chr>       <chr> <chr>         <chr>        <chr>      <lgl>                
##  1 Dorey_data… fd65… <NA>          <NA>         ALA_Apifo… TRUE                 
##  2 Dorey_data… b85a… <NA>          <NA>         ALA_Apifo… TRUE                 
##  3 Dorey_data… d95b… HYM36182      urn:lsid:oz… ALA_Apifo… TRUE                 
##  4 Dorey_data… 85bc… <NA>          <NA>         ALA_Apifo… TRUE                 
##  5 Dorey_data… b905… HYM36180      urn:lsid:oz… ALA_Apifo… TRUE                 
##  6 Dorey_data… f6fd… 132550620     https://www… ALA_Apifo… TRUE                 
##  7 Dorey_data… bd38… HYM42541      urn:lsid:oz… ALA_Apifo… TRUE                 
##  8 Dorey_data… f046… 31469707      https://www… ALA_Apifo… TRUE                 
##  9 Dorey_data… f3b7… 4244291       /sightings/… ALA_Apifo… TRUE                 
## 10 Dorey_data… 907a… <NA>          <NA>         ALA_Apifo… TRUE                 
## # ℹ 153,126 more rows
## # ℹ 25 more variables: .coordinates_empty <lgl>, .coordinates_outOfRange <lgl>,
## #   .basisOfRecords_notStandard <lgl>, .coordinates_country_inconsistent <lgl>,
## #   .occurrenceAbsent <lgl>, .unLicensed <lgl>, .GBIFflags <lgl>,
## #   .summary <lgl>, .invalidName <lgl>, .rou <lgl>, .val <lgl>, .equ <lgl>,
## #   .zer <lgl>, .cap <lgl>, .cen <lgl>, .gbf <lgl>, .inst <lgl>,
## #   .sequential <lgl>, .lonFlag <lgl>, .latFlag <lgl>, .gridSummary <lgl>, …
…
